Read and clean names and set variable labels — read_clean • reuseme
…
    It keeps the variable labels attributes to have improved support in the RStudio IDE,
with gt tables and with ggplots (>= 3.6.0).

    Examples

read_clean(system.file("extdata",  "challenge.csv", package = "readr"))
#> Rows: 2000 Columns: 2
#> ── Column specification ────────────────────────────────────────────────────────
#> Delimiter: ","
#> dbl  (1): x
#> date (1): y
#> 
#> ℹ Use `spec()` to retrieve the full column specification for this data.
#> ℹ Specify the column types or set `show_col_types = FALSE` to quiet this message.
#> # A tibble: 2,000 × 2
#>        x y     
#>    <dbl> <date>
#>  1   404 NA    
#>  2  4172 NA    
#>  3  3004 NA    
#>  4   787 NA    
#>  5    37 NA    
#>  6  2332 NA    
#>  7  2489 NA    
#>  8  1449 NA    
#>  9  3665 NA    
#> 10  3863 NA    
#> # ℹ 1,990 more rows
…
